^C:\USERS\PHILIPP.ZIEHDORN\APPDATA\LOCAL\TEMP\.NETFRAMEWORK,VERSION=V4.5.ASSEMBLYATTRIBUTES.CPP
D:\MEIN STUDIUM\INF\INF3\PHILIPPZ-INF3_PROJEKT\PHILIPPZ-INF3_PROJEKT\INF3_PROJEKT\INF3_PROJEKT\DEBUG\VC120.PDB
D:\MEIN STUDIUM\INF\INF3\PHILIPPZ-INF3_PROJEKT\PHILIPPZ-INF3_PROJEKT\INF3_PROJEKT\INF3_PROJEKT\DEBUG\.NETFRAMEWORK,VERSION=V4.5.ASSEMBLYATTRIBUTES.OBJ
^D:\MEIN STUDIUM\INF\INF3\PHILIPPZ-INF3_PROJEKT\PHILIPPZ-INF3_PROJEKT\INF3_PROJEKT\INF3_PROJEKT\ANZEIGENFORM.CPP|D:\MEIN STUDIUM\INF\INF3\PHILIPPZ-INF3_PROJEKT\PHILIPPZ-INF3_PROJEKT\INF3_PROJEKT\INF3_PROJEKT\HAUPTFORM.CPP|D:\MEIN STUDIUM\INF\INF3\PHILIPPZ-INF3_PROJEKT\PHILIPPZ-INF3_PROJEKT\INF3_PROJEKT\INF3_PROJEKT\HILFEFORM.CPP|D:\MEIN STUDIUM\INF\INF3\PHILIPPZ-INF3_PROJEKT\PHILIPPZ-INF3_PROJEKT\INF3_PROJEKT\INF3_PROJEKT\SUCHENFORM.CPP
D:\MEIN STUDIUM\INF\INF3\PHILIPPZ-INF3_PROJEKT\PHILIPPZ-INF3_PROJEKT\INF3_PROJEKT\INF3_PROJEKT\DEBUG\VC120.PDB
D:\MEIN STUDIUM\INF\INF3\PHILIPPZ-INF3_PROJEKT\PHILIPPZ-INF3_PROJEKT\INF3_PROJEKT\INF3_PROJEKT\DEBUG\SUCHENFORM.OBJ
D:\MEIN STUDIUM\INF\INF3\PHILIPPZ-INF3_PROJEKT\PHILIPPZ-INF3_PROJEKT\INF3_PROJEKT\INF3_PROJEKT\DEBUG\HILFEFORM.OBJ
D:\MEIN STUDIUM\INF\INF3\PHILIPPZ-INF3_PROJEKT\PHILIPPZ-INF3_PROJEKT\INF3_PROJEKT\INF3_PROJEKT\DEBUG\HAUPTFORM.OBJ
D:\MEIN STUDIUM\INF\INF3\PHILIPPZ-INF3_PROJEKT\PHILIPPZ-INF3_PROJEKT\INF3_PROJEKT\INF3_PROJEKT\DEBUG\ANZEIGENFORM.OBJ
^D:\MEIN STUDIUM\INF\INF3\PHILIPPZ-INF3_PROJEKT\PHILIPPZ-INF3_PROJEKT\INF3_PROJEKT\INF3_PROJEKT\HILFEFORM.CPP
D:\MEIN STUDIUM\INF\INF3\PHILIPPZ-INF3_PROJEKT\PHILIPPZ-INF3_PROJEKT\INF3_PROJEKT\INF3_PROJEKT\DEBUG\VC120.PDB
^D:\MEIN STUDIUM\INF\INF3\PHILIPPZ-INF3_PROJEKT\PHILIPPZ-INF3_PROJEKT\INF3_PROJEKT\INF3_PROJEKT\HAUPTFORM.CPP|D:\MEIN STUDIUM\INF\INF3\PHILIPPZ-INF3_PROJEKT\PHILIPPZ-INF3_PROJEKT\INF3_PROJEKT\INF3_PROJEKT\SUCHENFORM.CPP
D:\MEIN STUDIUM\INF\INF3\PHILIPPZ-INF3_PROJEKT\PHILIPPZ-INF3_PROJEKT\INF3_PROJEKT\INF3_PROJEKT\DEBUG\VC120.PDB
D:\MEIN STUDIUM\INF\INF3\PHILIPPZ-INF3_PROJEKT\PHILIPPZ-INF3_PROJEKT\INF3_PROJEKT\INF3_PROJEKT\DEBUG\SUCHENFORM.OBJ
D:\MEIN STUDIUM\INF\INF3\PHILIPPZ-INF3_PROJEKT\PHILIPPZ-INF3_PROJEKT\INF3_PROJEKT\INF3_PROJEKT\DEBUG\HAUPTFORM.OBJ
^D:\MEIN STUDIUM\INF\INF3\PHILIPPZ-INF3_PROJEKT\PHILIPPZ-INF3_PROJEKT\INF3_PROJEKT\INF3_PROJEKT\HAUPTFORM.CPP|D:\MEIN STUDIUM\INF\INF3\PHILIPPZ-INF3_PROJEKT\PHILIPPZ-INF3_PROJEKT\INF3_PROJEKT\INF3_PROJEKT\HILFEHAUPTMFORM.CPP
D:\MEIN STUDIUM\INF\INF3\PHILIPPZ-INF3_PROJEKT\PHILIPPZ-INF3_PROJEKT\INF3_PROJEKT\INF3_PROJEKT\DEBUG\VC120.PDB
D:\MEIN STUDIUM\INF\INF3\PHILIPPZ-INF3_PROJEKT\PHILIPPZ-INF3_PROJEKT\INF3_PROJEKT\INF3_PROJEKT\DEBUG\HILFEHAUPTMFORM.OBJ
D:\MEIN STUDIUM\INF\INF3\PHILIPPZ-INF3_PROJEKT\PHILIPPZ-INF3_PROJEKT\INF3_PROJEKT\INF3_PROJEKT\DEBUG\HAUPTFORM.OBJ
^D:\MEIN STUDIUM\INF\INF3\PHILIPPZ-INF3_PROJEKT\PHILIPPZ-INF3_PROJEKT\INF3_PROJEKT\INF3_PROJEKT\HILFEHAUPTMFORM.CPP
D:\MEIN STUDIUM\INF\INF3\PHILIPPZ-INF3_PROJEKT\PHILIPPZ-INF3_PROJEKT\INF3_PROJEKT\INF3_PROJEKT\DEBUG\VC120.PDB
^D:\MEIN STUDIUM\INF\INF3\PHILIPPZ-INF3_PROJEKT\PHILIPPZ-INF3_PROJEKT\INF3_PROJEKT\INF3_PROJEKT\ANZEIGENFORM.CPP|D:\MEIN STUDIUM\INF\INF3\PHILIPPZ-INF3_PROJEKT\PHILIPPZ-INF3_PROJEKT\INF3_PROJEKT\INF3_PROJEKT\HAUPTFORM.CPP|D:\MEIN STUDIUM\INF\INF3\PHILIPPZ-INF3_PROJEKT\PHILIPPZ-INF3_PROJEKT\INF3_PROJEKT\INF3_PROJEKT\SUCHENFORM.CPP
D:\MEIN STUDIUM\INF\INF3\PHILIPPZ-INF3_PROJEKT\PHILIPPZ-INF3_PROJEKT\INF3_PROJEKT\INF3_PROJEKT\DEBUG\VC120.PDB
D:\MEIN STUDIUM\INF\INF3\PHILIPPZ-INF3_PROJEKT\PHILIPPZ-INF3_PROJEKT\INF3_PROJEKT\INF3_PROJEKT\DEBUG\SUCHENFORM.OBJ
D:\MEIN STUDIUM\INF\INF3\PHILIPPZ-INF3_PROJEKT\PHILIPPZ-INF3_PROJEKT\INF3_PROJEKT\INF3_PROJEKT\DEBUG\HAUPTFORM.OBJ
D:\MEIN STUDIUM\INF\INF3\PHILIPPZ-INF3_PROJEKT\PHILIPPZ-INF3_PROJEKT\INF3_PROJEKT\INF3_PROJEKT\DEBUG\ANZEIGENFORM.OBJ
^D:\MEIN STUDIUM\INF\INF3\PHILIPPZ-INF3_PROJEKT\PHILIPPZ-INF3_PROJEKT\INF3_PROJEKT\INF3_PROJEKT\HAUPTFORM.CPP
D:\MEIN STUDIUM\INF\INF3\PHILIPPZ-INF3_PROJEKT\PHILIPPZ-INF3_PROJEKT\INF3_PROJEKT\INF3_PROJEKT\DEBUG\VC120.PDB
^D:\MEIN STUDIUM\INF\INF3\PHILIPPZ-INF3_PROJEKT\PHILIPPZ-INF3_PROJEKT\INF3_PROJEKT\INF3_PROJEKT\ANZEIGENFORM.CPP|D:\MEIN STUDIUM\INF\INF3\PHILIPPZ-INF3_PROJEKT\PHILIPPZ-INF3_PROJEKT\INF3_PROJEKT\INF3_PROJEKT\SUCHENFORM.CPP
D:\MEIN STUDIUM\INF\INF3\PHILIPPZ-INF3_PROJEKT\PHILIPPZ-INF3_PROJEKT\INF3_PROJEKT\INF3_PROJEKT\DEBUG\VC120.PDB
D:\MEIN STUDIUM\INF\INF3\PHILIPPZ-INF3_PROJEKT\PHILIPPZ-INF3_PROJEKT\INF3_PROJEKT\INF3_PROJEKT\DEBUG\SUCHENFORM.OBJ
D:\MEIN STUDIUM\INF\INF3\PHILIPPZ-INF3_PROJEKT\PHILIPPZ-INF3_PROJEKT\INF3_PROJEKT\INF3_PROJEKT\DEBUG\ANZEIGENFORM.OBJ
^D:\MEIN STUDIUM\INF\INF3\PHILIPPZ-INF3_PROJEKT\PHILIPPZ-INF3_PROJEKT\INF3_PROJEKT\INF3_PROJEKT\ANZEIGENFORM.CPP
D:\MEIN STUDIUM\INF\INF3\PHILIPPZ-INF3_PROJEKT\PHILIPPZ-INF3_PROJEKT\INF3_PROJEKT\INF3_PROJEKT\DEBUG\VC120.PDB
^D:\MEIN STUDIUM\INF\INF3\PHILIPPZ-INF3_PROJEKT\PHILIPPZ-INF3_PROJEKT\INF3_PROJEKT\INF3_PROJEKT\SUCHENFORM.CPP
D:\MEIN STUDIUM\INF\INF3\PHILIPPZ-INF3_PROJEKT\PHILIPPZ-INF3_PROJEKT\INF3_PROJEKT\INF3_PROJEKT\DEBUG\VC120.PDB
