^C:\VISUAL STUDIO 2013\PROJECTS\INF3_PROJEKT\INF3_PROJEKT\DEBUG\.NETFRAMEWORK,VERSION=V4.5.ASSEMBLYATTRIBUTES.OBJ|C:\VISUAL STUDIO 2013\PROJECTS\INF3_PROJEKT\INF3_PROJEKT\DEBUG\AENDERNFORM.OBJ|C:\VISUAL STUDIO 2013\PROJECTS\INF3_PROJEKT\INF3_PROJEKT\DEBUG\ANZEIGENFORM.OBJ|C:\VISUAL STUDIO 2013\PROJECTS\INF3_PROJEKT\INF3_PROJEKT\DEBUG\EINGEBENFORM.OBJ|C:\VISUAL STUDIO 2013\PROJECTS\INF3_PROJEKT\INF3_PROJEKT\DEBUG\HAUPTFORM.OBJ|C:\VISUAL STUDIO 2013\PROJECTS\INF3_PROJEKT\INF3_PROJEKT\DEBUG\LOESCHENFORM.OBJ|C:\VISUAL STUDIO 2013\PROJECTS\INF3_PROJEKT\INF3_PROJEKT\DEBUG\SUCHENFORM.OBJ
/OUT:"C:\VISUAL STUDIO 2013\PROJECTS\INF3_PROJEKT\DEBUG\INF3_PROJEKT.EXE" /INCREMENTAL /NOLOGO /ASSEMBLYRESOURCE:Debug\INF3_Projekt.AendernForm.resources /ASSEMBLYRESOURCE:Debug\INF3_Projekt.AnzeigenForm.resources /ASSEMBLYRESOURCE:Debug\INF3_Projekt.EingebenForm.resources /ASSEMBLYRESOURCE:Debug\INF3_Projekt.HauptForm.resources /ASSEMBLYRESOURCE:Debug\INF3_Projekt.LoeschenForm.resources /ASSEMBLYRESOURCE:Debug\INF3_Projekt.SuchenForm.resources /MANIFEST /MANIFESTUAC:"level='asInvoker' uiAccess='false'" /manifest:embed /DEBUG /PDB:"C:\VISUAL STUDIO 2013\PROJECTS\INF3_PROJEKT\DEBUG\INF3_PROJEKT.PDB" /ASSEMBLYDEBUG /SUBSYSTEM:WINDOWS /TLBID:1 /ENTRY:"main" /DYNAMICBASE /FIXED:NO /NXCOMPAT /MACHINE:X86 DEBUG\AENDERNFORM.OBJDEBUG\ANZEIGENFORM.OBJDEBUG\EINGEBENFORM.OBJDEBUG\HAUPTFORM.OBJDEBUG\LOESCHENFORM.OBJDEBUG\SUCHENFORM.OBJ"DEBUG\.NETFRAMEWORK,VERSION=V4.5.ASSEMBLYATTRIBUTES.OBJ"
^D:\MEIN STUDIUM\INF\INF3\PROJEKT\INF3_PROJEKT\INF3_PROJEKT\DEBUG\.NETFRAMEWORK,VERSION=V4.5.ASSEMBLYATTRIBUTES.OBJ|D:\MEIN STUDIUM\INF\INF3\PROJEKT\INF3_PROJEKT\INF3_PROJEKT\DEBUG\AENDERNFORM.OBJ|D:\MEIN STUDIUM\INF\INF3\PROJEKT\INF3_PROJEKT\INF3_PROJEKT\DEBUG\ANZEIGENFORM.OBJ|D:\MEIN STUDIUM\INF\INF3\PROJEKT\INF3_PROJEKT\INF3_PROJEKT\DEBUG\EINGEBENFORM.OBJ|D:\MEIN STUDIUM\INF\INF3\PROJEKT\INF3_PROJEKT\INF3_PROJEKT\DEBUG\HAUPTFORM.OBJ|D:\MEIN STUDIUM\INF\INF3\PROJEKT\INF3_PROJEKT\INF3_PROJEKT\DEBUG\LOESCHENFORM.OBJ|D:\MEIN STUDIUM\INF\INF3\PROJEKT\INF3_PROJEKT\INF3_PROJEKT\DEBUG\SUCHENFORM.OBJ
/OUT:"D:\MEIN STUDIUM\INF\INF3\PROJEKT\INF3_PROJEKT\DEBUG\INF3_PROJEKT.EXE" /INCREMENTAL /NOLOGO /ASSEMBLYRESOURCE:Debug\INF3_Projekt.AendernForm.resources /ASSEMBLYRESOURCE:Debug\INF3_Projekt.AnzeigenForm.resources /ASSEMBLYRESOURCE:Debug\INF3_Projekt.EingebenForm.resources /ASSEMBLYRESOURCE:Debug\INF3_Projekt.HauptForm.resources /ASSEMBLYRESOURCE:Debug\INF3_Projekt.LoeschenForm.resources /ASSEMBLYRESOURCE:Debug\INF3_Projekt.SuchenForm.resources /MANIFEST /MANIFESTUAC:"level='asInvoker' uiAccess='false'" /manifest:embed /DEBUG /PDB:"D:\MEIN STUDIUM\INF\INF3\PROJEKT\INF3_PROJEKT\DEBUG\INF3_PROJEKT.PDB" /ASSEMBLYDEBUG /SUBSYSTEM:WINDOWS /TLBID:1 /ENTRY:"main" /DYNAMICBASE /FIXED:NO /NXCOMPAT /MACHINE:X86 DEBUG\AENDERNFORM.OBJDEBUG\ANZEIGENFORM.OBJDEBUG\EINGEBENFORM.OBJDEBUG\HAUPTFORM.OBJDEBUG\LOESCHENFORM.OBJDEBUG\SUCHENFORM.OBJ"DEBUG\.NETFRAMEWORK,VERSION=V4.5.ASSEMBLYATTRIBUTES.OBJ"
^C:\USERS\HENDRIK\DOCUMENTS\INF3_PROJEKT\INF3_PROJEKT\INF3_PROJEKT\DEBUG\.NETFRAMEWORK,VERSION=V4.5.ASSEMBLYATTRIBUTES.OBJ|C:\USERS\HENDRIK\DOCUMENTS\INF3_PROJEKT\INF3_PROJEKT\INF3_PROJEKT\DEBUG\AENDERNFORM.OBJ|C:\USERS\HENDRIK\DOCUMENTS\INF3_PROJEKT\INF3_PROJEKT\INF3_PROJEKT\DEBUG\ANZEIGENFORM.OBJ|C:\USERS\HENDRIK\DOCUMENTS\INF3_PROJEKT\INF3_PROJEKT\INF3_PROJEKT\DEBUG\EINGEBENFORM.OBJ|C:\USERS\HENDRIK\DOCUMENTS\INF3_PROJEKT\INF3_PROJEKT\INF3_PROJEKT\DEBUG\HAUPTFORM.OBJ|C:\USERS\HENDRIK\DOCUMENTS\INF3_PROJEKT\INF3_PROJEKT\INF3_PROJEKT\DEBUG\LOESCHENFORM.OBJ|C:\USERS\HENDRIK\DOCUMENTS\INF3_PROJEKT\INF3_PROJEKT\INF3_PROJEKT\DEBUG\SUCHENFORM.OBJ|C:\USERS\HENDRIK\DOCUMENTS\INF3_PROJEKT\INF3_PROJEKT\INF3_PROJEKT\DEBUG\SUCHTREFFERFORM1.OBJ
/OUT:"C:\USERS\HENDRIK\DOCUMENTS\INF3_PROJEKT\INF3_PROJEKT\DEBUG\INF3_PROJEKT.EXE" /INCREMENTAL /NOLOGO /ASSEMBLYRESOURCE:Debug\INF3_Projekt.AendernForm.resources /ASSEMBLYRESOURCE:Debug\INF3_Projekt.AnzeigenForm.resources /ASSEMBLYRESOURCE:Debug\INF3_Projekt.EingebenForm.resources /ASSEMBLYRESOURCE:Debug\INF3_Projekt.HauptForm.resources /ASSEMBLYRESOURCE:Debug\INF3_Projekt.LoeschenForm.resources /ASSEMBLYRESOURCE:Debug\INF3_Projekt.SuchenForm.resources /ASSEMBLYRESOURCE:Debug\INF3_Projekt.SuchtrefferForm1.resources /MANIFEST /MANIFESTUAC:"level='asInvoker' uiAccess='false'" /manifest:embed /DEBUG /PDB:"C:\USERS\HENDRIK\DOCUMENTS\INF3_PROJEKT\INF3_PROJEKT\DEBUG\INF3_PROJEKT.PDB" /ASSEMBLYDEBUG /SUBSYSTEM:WINDOWS /TLBID:1 /ENTRY:"main" /DYNAMICBASE /FIXED:NO /NXCOMPAT /MACHINE:X86 DEBUG\AENDERNFORM.OBJDEBUG\ANZEIGENFORM.OBJDEBUG\EINGEBENFORM.OBJDEBUG\HAUPTFORM.OBJDEBUG\LOESCHENFORM.OBJDEBUG\SUCHENFORM.OBJDEBUG\SUCHTREFFERFORM1.OBJ"DEBUG\.NETFRAMEWORK,VERSION=V4.5.ASSEMBLYATTRIBUTES.OBJ"
^C:\USERS\BENTURNER\DOCUMENTS\INF3_PROJEKT\INF3_PROJEKT\INF3_PROJEKT\DEBUG\.NETFRAMEWORK,VERSION=V4.5.ASSEMBLYATTRIBUTES.OBJ|C:\USERS\BENTURNER\DOCUMENTS\INF3_PROJEKT\INF3_PROJEKT\INF3_PROJEKT\DEBUG\AENDERNFORM.OBJ|C:\USERS\BENTURNER\DOCUMENTS\INF3_PROJEKT\INF3_PROJEKT\INF3_PROJEKT\DEBUG\ANZEIGENFORM.OBJ|C:\USERS\BENTURNER\DOCUMENTS\INF3_PROJEKT\INF3_PROJEKT\INF3_PROJEKT\DEBUG\EINGEBENFORM.OBJ|C:\USERS\BENTURNER\DOCUMENTS\INF3_PROJEKT\INF3_PROJEKT\INF3_PROJEKT\DEBUG\HAUPTFORM.OBJ|C:\USERS\BENTURNER\DOCUMENTS\INF3_PROJEKT\INF3_PROJEKT\INF3_PROJEKT\DEBUG\LOESCHENFORM.OBJ|C:\USERS\BENTURNER\DOCUMENTS\INF3_PROJEKT\INF3_PROJEKT\INF3_PROJEKT\DEBUG\SUCHENFORM.OBJ|C:\USERS\BENTURNER\DOCUMENTS\INF3_PROJEKT\INF3_PROJEKT\INF3_PROJEKT\DEBUG\SUCHTREFFERFORM1.OBJ
/OUT:"C:\USERS\BENTURNER\DOCUMENTS\INF3_PROJEKT\INF3_PROJEKT\DEBUG\INF3_PROJEKT.EXE" /INCREMENTAL /NOLOGO /ASSEMBLYRESOURCE:Debug\INF3_Projekt.AendernForm.resources /ASSEMBLYRESOURCE:Debug\INF3_Projekt.AnzeigenForm.resources /ASSEMBLYRESOURCE:Debug\INF3_Projekt.EingebenForm.resources /ASSEMBLYRESOURCE:Debug\INF3_Projekt.HauptForm.resources /ASSEMBLYRESOURCE:Debug\INF3_Projekt.LoeschenForm.resources /ASSEMBLYRESOURCE:Debug\INF3_Projekt.SuchenForm.resources /ASSEMBLYRESOURCE:Debug\INF3_Projekt.SuchtrefferForm1.resources /MANIFEST /MANIFESTUAC:"level='asInvoker' uiAccess='false'" /manifest:embed /DEBUG /PDB:"C:\USERS\BENTURNER\DOCUMENTS\INF3_PROJEKT\INF3_PROJEKT\DEBUG\INF3_PROJEKT.PDB" /ASSEMBLYDEBUG /SUBSYSTEM:WINDOWS /TLBID:1 /ENTRY:"main" /DYNAMICBASE /FIXED:NO /NXCOMPAT /MACHINE:X86 DEBUG\AENDERNFORM.OBJDEBUG\ANZEIGENFORM.OBJDEBUG\EINGEBENFORM.OBJDEBUG\HAUPTFORM.OBJDEBUG\LOESCHENFORM.OBJDEBUG\SUCHENFORM.OBJDEBUG\SUCHTREFFERFORM1.OBJ"DEBUG\.NETFRAMEWORK,VERSION=V4.5.ASSEMBLYATTRIBUTES.OBJ"
^D:\MEIN STUDIUM\INF\INF3\TEST\PHILIPPZ-INF3_PROJEKT-E4878DE6161C\PHILIPPZ-INF3_PROJEKT-E4878DE6161C\INF3_PROJEKT\INF3_PROJEKT\DEBUG\.NETFRAMEWORK,VERSION=V4.5.ASSEMBLYATTRIBUTES.OBJ|D:\MEIN STUDIUM\INF\INF3\TEST\PHILIPPZ-INF3_PROJEKT-E4878DE6161C\PHILIPPZ-INF3_PROJEKT-E4878DE6161C\INF3_PROJEKT\INF3_PROJEKT\DEBUG\AENDERNFORM.OBJ|D:\MEIN STUDIUM\INF\INF3\TEST\PHILIPPZ-INF3_PROJEKT-E4878DE6161C\PHILIPPZ-INF3_PROJEKT-E4878DE6161C\INF3_PROJEKT\INF3_PROJEKT\DEBUG\ANZEIGENFORM.OBJ|D:\MEIN STUDIUM\INF\INF3\TEST\PHILIPPZ-INF3_PROJEKT-E4878DE6161C\PHILIPPZ-INF3_PROJEKT-E4878DE6161C\INF3_PROJEKT\INF3_PROJEKT\DEBUG\EINGEBENFORM.OBJ|D:\MEIN STUDIUM\INF\INF3\TEST\PHILIPPZ-INF3_PROJEKT-E4878DE6161C\PHILIPPZ-INF3_PROJEKT-E4878DE6161C\INF3_PROJEKT\INF3_PROJEKT\DEBUG\HAUPTFORM.OBJ|D:\MEIN STUDIUM\INF\INF3\TEST\PHILIPPZ-INF3_PROJEKT-E4878DE6161C\PHILIPPZ-INF3_PROJEKT-E4878DE6161C\INF3_PROJEKT\INF3_PROJEKT\DEBUG\LOESCHENFORM.OBJ|D:\MEIN STUDIUM\INF\INF3\TEST\PHILIPPZ-INF3_PROJEKT-E4878DE6161C\PHILIPPZ-INF3_PROJEKT-E4878DE6161C\INF3_PROJEKT\INF3_PROJEKT\DEBUG\SUCHENFORM.OBJ|D:\MEIN STUDIUM\INF\INF3\TEST\PHILIPPZ-INF3_PROJEKT-E4878DE6161C\PHILIPPZ-INF3_PROJEKT-E4878DE6161C\INF3_PROJEKT\INF3_PROJEKT\DEBUG\SUCHTREFFERFORM1.OBJ
/OUT:"D:\MEIN STUDIUM\INF\INF3\TEST\PHILIPPZ-INF3_PROJEKT-E4878DE6161C\PHILIPPZ-INF3_PROJEKT-E4878DE6161C\INF3_PROJEKT\DEBUG\INF3_PROJEKT.EXE" /INCREMENTAL /NOLOGO /ASSEMBLYRESOURCE:Debug\INF3_Projekt.AendernForm.resources /ASSEMBLYRESOURCE:Debug\INF3_Projekt.AnzeigenForm.resources /ASSEMBLYRESOURCE:Debug\INF3_Projekt.EingebenForm.resources /ASSEMBLYRESOURCE:Debug\INF3_Projekt.HauptForm.resources /ASSEMBLYRESOURCE:Debug\INF3_Projekt.LoeschenForm.resources /ASSEMBLYRESOURCE:Debug\INF3_Projekt.SuchenForm.resources /ASSEMBLYRESOURCE:Debug\INF3_Projekt.SuchtrefferForm1.resources /MANIFEST /MANIFESTUAC:"level='asInvoker' uiAccess='false'" /manifest:embed /DEBUG /PDB:"D:\MEIN STUDIUM\INF\INF3\TEST\PHILIPPZ-INF3_PROJEKT-E4878DE6161C\PHILIPPZ-INF3_PROJEKT-E4878DE6161C\INF3_PROJEKT\DEBUG\INF3_PROJEKT.PDB" /ASSEMBLYDEBUG /SUBSYSTEM:WINDOWS /TLBID:1 /ENTRY:"main" /DYNAMICBASE /FIXED:NO /NXCOMPAT /MACHINE:X86 DEBUG\AENDERNFORM.OBJDEBUG\ANZEIGENFORM.OBJDEBUG\EINGEBENFORM.OBJDEBUG\HAUPTFORM.OBJDEBUG\LOESCHENFORM.OBJDEBUG\SUCHENFORM.OBJDEBUG\SUCHTREFFERFORM1.OBJ"DEBUG\.NETFRAMEWORK,VERSION=V4.5.ASSEMBLYATTRIBUTES.OBJ"
^C:\USERS\PHILIPP.ZIEHDORN\DESKTOP\PHILIPPZ-INF3_PROJEKT-1D6E534B60F8\PHILIPPZ-INF3_PROJEKT-1D6E534B60F8\INF3_PROJEKT\INF3_PROJEKT\DEBUG\.NETFRAMEWORK,VERSION=V4.5.ASSEMBLYATTRIBUTES.OBJ|C:\USERS\PHILIPP.ZIEHDORN\DESKTOP\PHILIPPZ-INF3_PROJEKT-1D6E534B60F8\PHILIPPZ-INF3_PROJEKT-1D6E534B60F8\INF3_PROJEKT\INF3_PROJEKT\DEBUG\AENDERNFORM.OBJ|C:\USERS\PHILIPP.ZIEHDORN\DESKTOP\PHILIPPZ-INF3_PROJEKT-1D6E534B60F8\PHILIPPZ-INF3_PROJEKT-1D6E534B60F8\INF3_PROJEKT\INF3_PROJEKT\DEBUG\ANZEIGENFORM.OBJ|C:\USERS\PHILIPP.ZIEHDORN\DESKTOP\PHILIPPZ-INF3_PROJEKT-1D6E534B60F8\PHILIPPZ-INF3_PROJEKT-1D6E534B60F8\INF3_PROJEKT\INF3_PROJEKT\DEBUG\EINGEBENFORM.OBJ|C:\USERS\PHILIPP.ZIEHDORN\DESKTOP\PHILIPPZ-INF3_PROJEKT-1D6E534B60F8\PHILIPPZ-INF3_PROJEKT-1D6E534B60F8\INF3_PROJEKT\INF3_PROJEKT\DEBUG\HAUPTFORM.OBJ|C:\USERS\PHILIPP.ZIEHDORN\DESKTOP\PHILIPPZ-INF3_PROJEKT-1D6E534B60F8\PHILIPPZ-INF3_PROJEKT-1D6E534B60F8\INF3_PROJEKT\INF3_PROJEKT\DEBUG\LOESCHENFORM.OBJ|C:\USERS\PHILIPP.ZIEHDORN\DESKTOP\PHILIPPZ-INF3_PROJEKT-1D6E534B60F8\PHILIPPZ-INF3_PROJEKT-1D6E534B60F8\INF3_PROJEKT\INF3_PROJEKT\DEBUG\SUCHENFORM.OBJ|C:\USERS\PHILIPP.ZIEHDORN\DESKTOP\PHILIPPZ-INF3_PROJEKT-1D6E534B60F8\PHILIPPZ-INF3_PROJEKT-1D6E534B60F8\INF3_PROJEKT\INF3_PROJEKT\DEBUG\SUCHTREFFERFORM1.OBJ
/OUT:"C:\USERS\PHILIPP.ZIEHDORN\DESKTOP\PHILIPPZ-INF3_PROJEKT-1D6E534B60F8\PHILIPPZ-INF3_PROJEKT-1D6E534B60F8\INF3_PROJEKT\DEBUG\INF3_PROJEKT.EXE" /INCREMENTAL /NOLOGO /ASSEMBLYRESOURCE:Debug\INF3_Projekt.AendernForm.resources /ASSEMBLYRESOURCE:Debug\INF3_Projekt.AnzeigenForm.resources /ASSEMBLYRESOURCE:Debug\INF3_Projekt.EingebenForm.resources /ASSEMBLYRESOURCE:Debug\INF3_Projekt.HauptForm.resources /ASSEMBLYRESOURCE:Debug\INF3_Projekt.LoeschenForm.resources /ASSEMBLYRESOURCE:Debug\INF3_Projekt.SuchenForm.resources /ASSEMBLYRESOURCE:Debug\INF3_Projekt.SuchtrefferForm1.resources /MANIFEST /MANIFESTUAC:"level='asInvoker' uiAccess='false'" /manifest:embed /DEBUG /PDB:"C:\USERS\PHILIPP.ZIEHDORN\DESKTOP\PHILIPPZ-INF3_PROJEKT-1D6E534B60F8\PHILIPPZ-INF3_PROJEKT-1D6E534B60F8\INF3_PROJEKT\DEBUG\INF3_PROJEKT.PDB" /ASSEMBLYDEBUG /SUBSYSTEM:WINDOWS /TLBID:1 /ENTRY:"main" /DYNAMICBASE /FIXED:NO /NXCOMPAT /MACHINE:X86 DEBUG\AENDERNFORM.OBJDEBUG\ANZEIGENFORM.OBJDEBUG\EINGEBENFORM.OBJDEBUG\HAUPTFORM.OBJDEBUG\LOESCHENFORM.OBJDEBUG\SUCHENFORM.OBJDEBUG\SUCHTREFFERFORM1.OBJ"DEBUG\.NETFRAMEWORK,VERSION=V4.5.ASSEMBLYATTRIBUTES.OBJ"
^C:\USERS\BENTURNER\DESKTOP\INF-PROJEKT\PHILIPPZ-INF3_PROJEKT-6AFFDCFBEFDF\INF3_PROJEKT\INF3_PROJEKT\DEBUG\.NETFRAMEWORK,VERSION=V4.5.ASSEMBLYATTRIBUTES.OBJ|C:\USERS\BENTURNER\DESKTOP\INF-PROJEKT\PHILIPPZ-INF3_PROJEKT-6AFFDCFBEFDF\INF3_PROJEKT\INF3_PROJEKT\DEBUG\AENDERNFORM.OBJ|C:\USERS\BENTURNER\DESKTOP\INF-PROJEKT\PHILIPPZ-INF3_PROJEKT-6AFFDCFBEFDF\INF3_PROJEKT\INF3_PROJEKT\DEBUG\ANZEIGENFORM.OBJ|C:\USERS\BENTURNER\DESKTOP\INF-PROJEKT\PHILIPPZ-INF3_PROJEKT-6AFFDCFBEFDF\INF3_PROJEKT\INF3_PROJEKT\DEBUG\EINGEBENFORM.OBJ|C:\USERS\BENTURNER\DESKTOP\INF-PROJEKT\PHILIPPZ-INF3_PROJEKT-6AFFDCFBEFDF\INF3_PROJEKT\INF3_PROJEKT\DEBUG\HAUPTFORM.OBJ|C:\USERS\BENTURNER\DESKTOP\INF-PROJEKT\PHILIPPZ-INF3_PROJEKT-6AFFDCFBEFDF\INF3_PROJEKT\INF3_PROJEKT\DEBUG\LOESCHENFORM.OBJ|C:\USERS\BENTURNER\DESKTOP\INF-PROJEKT\PHILIPPZ-INF3_PROJEKT-6AFFDCFBEFDF\INF3_PROJEKT\INF3_PROJEKT\DEBUG\SUCHENFORM.OBJ|C:\USERS\BENTURNER\DESKTOP\INF-PROJEKT\PHILIPPZ-INF3_PROJEKT-6AFFDCFBEFDF\INF3_PROJEKT\INF3_PROJEKT\DEBUG\SUCHTREFFERFORM1.OBJ
/OUT:"C:\USERS\BENTURNER\DESKTOP\INF-PROJEKT\PHILIPPZ-INF3_PROJEKT-6AFFDCFBEFDF\INF3_PROJEKT\DEBUG\INF3_PROJEKT.EXE" /INCREMENTAL /NOLOGO /ASSEMBLYRESOURCE:Debug\INF3_Projekt.AendernForm.resources /ASSEMBLYRESOURCE:Debug\INF3_Projekt.AnzeigenForm.resources /ASSEMBLYRESOURCE:Debug\INF3_Projekt.EingebenForm.resources /ASSEMBLYRESOURCE:Debug\INF3_Projekt.HauptForm.resources /ASSEMBLYRESOURCE:Debug\INF3_Projekt.LoeschenForm.resources /ASSEMBLYRESOURCE:Debug\INF3_Projekt.SuchenForm.resources /ASSEMBLYRESOURCE:Debug\INF3_Projekt.SuchtrefferForm1.resources /MANIFEST /MANIFESTUAC:"level='asInvoker' uiAccess='false'" /manifest:embed /DEBUG /PDB:"C:\USERS\BENTURNER\DESKTOP\INF-PROJEKT\PHILIPPZ-INF3_PROJEKT-6AFFDCFBEFDF\INF3_PROJEKT\DEBUG\INF3_PROJEKT.PDB" /ASSEMBLYDEBUG /SUBSYSTEM:WINDOWS /TLBID:1 /ENTRY:"main" /DYNAMICBASE /FIXED:NO /NXCOMPAT /MACHINE:X86 DEBUG\AENDERNFORM.OBJDEBUG\ANZEIGENFORM.OBJDEBUG\EINGEBENFORM.OBJDEBUG\HAUPTFORM.OBJDEBUG\LOESCHENFORM.OBJDEBUG\SUCHENFORM.OBJDEBUG\SUCHTREFFERFORM1.OBJ"DEBUG\.NETFRAMEWORK,VERSION=V4.5.ASSEMBLYATTRIBUTES.OBJ"
^D:\MEIN STUDIUM\INF\INF3\PHILIPPZ-INF3_PROJEKT\PHILIPPZ-INF3_PROJEKT\INF3_PROJEKT\INF3_PROJEKT\DEBUG\.NETFRAMEWORK,VERSION=V4.5.ASSEMBLYATTRIBUTES.OBJ|D:\MEIN STUDIUM\INF\INF3\PHILIPPZ-INF3_PROJEKT\PHILIPPZ-INF3_PROJEKT\INF3_PROJEKT\INF3_PROJEKT\DEBUG\ANZEIGENFORM.OBJ|D:\MEIN STUDIUM\INF\INF3\PHILIPPZ-INF3_PROJEKT\PHILIPPZ-INF3_PROJEKT\INF3_PROJEKT\INF3_PROJEKT\DEBUG\EINGEBENFORM.OBJ|D:\MEIN STUDIUM\INF\INF3\PHILIPPZ-INF3_PROJEKT\PHILIPPZ-INF3_PROJEKT\INF3_PROJEKT\INF3_PROJEKT\DEBUG\HAUPTFORM.OBJ|D:\MEIN STUDIUM\INF\INF3\PHILIPPZ-INF3_PROJEKT\PHILIPPZ-INF3_PROJEKT\INF3_PROJEKT\INF3_PROJEKT\DEBUG\SUCHENFORM.OBJ
/OUT:"D:\MEIN STUDIUM\INF\INF3\PHILIPPZ-INF3_PROJEKT\PHILIPPZ-INF3_PROJEKT\INF3_PROJEKT\DEBUG\INF3_PROJEKT.EXE" /INCREMENTAL /NOLOGO /ASSEMBLYRESOURCE:Debug\INF3_Projekt.AnzeigenForm.resources /ASSEMBLYRESOURCE:Debug\INF3_Projekt.EingebenForm.resources /ASSEMBLYRESOURCE:Debug\INF3_Projekt.HauptForm.resources /ASSEMBLYRESOURCE:Debug\INF3_Projekt.SuchenForm.resources /MANIFEST /MANIFESTUAC:"level='asInvoker' uiAccess='false'" /manifest:embed /DEBUG /PDB:"D:\MEIN STUDIUM\INF\INF3\PHILIPPZ-INF3_PROJEKT\PHILIPPZ-INF3_PROJEKT\INF3_PROJEKT\DEBUG\INF3_PROJEKT.PDB" /ASSEMBLYDEBUG /SUBSYSTEM:WINDOWS /TLBID:1 /ENTRY:"main" /DYNAMICBASE /FIXED:NO /NXCOMPAT /MACHINE:X86 DEBUG\ANZEIGENFORM.OBJDEBUG\EINGEBENFORM.OBJDEBUG\HAUPTFORM.OBJDEBUG\SUCHENFORM.OBJ"DEBUG\.NETFRAMEWORK,VERSION=V4.5.ASSEMBLYATTRIBUTES.OBJ"
^C:\USERS\HENDRIK\DOWNLOADS\INF3_PROJEKT\INF3_PROJEKT\DEBUG\.NETFRAMEWORK,VERSION=V4.5.ASSEMBLYATTRIBUTES.OBJ|C:\USERS\HENDRIK\DOWNLOADS\INF3_PROJEKT\INF3_PROJEKT\DEBUG\ANZEIGENFORM.OBJ|C:\USERS\HENDRIK\DOWNLOADS\INF3_PROJEKT\INF3_PROJEKT\DEBUG\EINGEBENFORM.OBJ|C:\USERS\HENDRIK\DOWNLOADS\INF3_PROJEKT\INF3_PROJEKT\DEBUG\HAUPTFORM.OBJ|C:\USERS\HENDRIK\DOWNLOADS\INF3_PROJEKT\INF3_PROJEKT\DEBUG\SUCHENFORM.OBJ
/OUT:"C:\USERS\HENDRIK\DOWNLOADS\INF3_PROJEKT\DEBUG\INF3_PROJEKT.EXE" /INCREMENTAL /NOLOGO /ASSEMBLYRESOURCE:Debug\INF3_Projekt.AnzeigenForm.resources /ASSEMBLYRESOURCE:Debug\INF3_Projekt.EingebenForm.resources /ASSEMBLYRESOURCE:Debug\INF3_Projekt.HauptForm.resources /ASSEMBLYRESOURCE:Debug\INF3_Projekt.SuchenForm.resources /MANIFEST /MANIFESTUAC:"level='asInvoker' uiAccess='false'" /manifest:embed /DEBUG /PDB:"C:\USERS\HENDRIK\DOWNLOADS\INF3_PROJEKT\DEBUG\INF3_PROJEKT.PDB" /ASSEMBLYDEBUG /SUBSYSTEM:WINDOWS /TLBID:1 /ENTRY:"main" /DYNAMICBASE /FIXED:NO /NXCOMPAT /MACHINE:X86 DEBUG\ANZEIGENFORM.OBJDEBUG\EINGEBENFORM.OBJDEBUG\HAUPTFORM.OBJDEBUG\SUCHENFORM.OBJ"DEBUG\.NETFRAMEWORK,VERSION=V4.5.ASSEMBLYATTRIBUTES.OBJ"
^C:\USERS\HENDRIK\DROPBOX\INF3_PROJEKT\INF3_PROJEKT\DEBUG\.NETFRAMEWORK,VERSION=V4.5.ASSEMBLYATTRIBUTES.OBJ|C:\USERS\HENDRIK\DROPBOX\INF3_PROJEKT\INF3_PROJEKT\DEBUG\ANZEIGENFORM.OBJ|C:\USERS\HENDRIK\DROPBOX\INF3_PROJEKT\INF3_PROJEKT\DEBUG\EINGEBENFORM.OBJ|C:\USERS\HENDRIK\DROPBOX\INF3_PROJEKT\INF3_PROJEKT\DEBUG\HAUPTFORM.OBJ|C:\USERS\HENDRIK\DROPBOX\INF3_PROJEKT\INF3_PROJEKT\DEBUG\SUCHENFORM.OBJ
/OUT:"C:\USERS\HENDRIK\DROPBOX\INF3_PROJEKT\DEBUG\INF3_PROJEKT.EXE" /INCREMENTAL /NOLOGO /ASSEMBLYRESOURCE:Debug\INF3_Projekt.AnzeigenForm.resources /ASSEMBLYRESOURCE:Debug\INF3_Projekt.EingebenForm.resources /ASSEMBLYRESOURCE:Debug\INF3_Projekt.HauptForm.resources /ASSEMBLYRESOURCE:Debug\INF3_Projekt.SuchenForm.resources /MANIFEST /MANIFESTUAC:"level='asInvoker' uiAccess='false'" /manifest:embed /DEBUG /PDB:"C:\USERS\HENDRIK\DROPBOX\INF3_PROJEKT\DEBUG\INF3_PROJEKT.PDB" /ASSEMBLYDEBUG /SUBSYSTEM:WINDOWS /TLBID:1 /ENTRY:"main" /DYNAMICBASE /FIXED:NO /NXCOMPAT /MACHINE:X86 DEBUG\ANZEIGENFORM.OBJDEBUG\EINGEBENFORM.OBJDEBUG\HAUPTFORM.OBJDEBUG\SUCHENFORM.OBJ"DEBUG\.NETFRAMEWORK,VERSION=V4.5.ASSEMBLYATTRIBUTES.OBJ"
^C:\USERS\BENTURNER\DROPBOX\INF3_PROJEKT\INF3_PROJEKT\DEBUG\.NETFRAMEWORK,VERSION=V4.5.ASSEMBLYATTRIBUTES.OBJ|C:\USERS\BENTURNER\DROPBOX\INF3_PROJEKT\INF3_PROJEKT\DEBUG\ANZEIGENFORM.OBJ|C:\USERS\BENTURNER\DROPBOX\INF3_PROJEKT\INF3_PROJEKT\DEBUG\HAUPTFORM.OBJ|C:\USERS\BENTURNER\DROPBOX\INF3_PROJEKT\INF3_PROJEKT\DEBUG\SUCHENFORM.OBJ
/OUT:"C:\USERS\BENTURNER\DROPBOX\INF3_PROJEKT\DEBUG\INF3_PROJEKT.EXE" /INCREMENTAL /NOLOGO /ASSEMBLYRESOURCE:Debug\INF3_Projekt.AnzeigenForm.resources /ASSEMBLYRESOURCE:Debug\INF3_Projekt.HauptForm.resources /ASSEMBLYRESOURCE:Debug\INF3_Projekt.SuchenForm.resources /MANIFEST /MANIFESTUAC:"level='asInvoker' uiAccess='false'" /manifest:embed /DEBUG /PDB:"C:\USERS\BENTURNER\DROPBOX\INF3_PROJEKT\DEBUG\INF3_PROJEKT.PDB" /ASSEMBLYDEBUG /SUBSYSTEM:WINDOWS /TLBID:1 /ENTRY:"main" /DYNAMICBASE /FIXED:NO /NXCOMPAT /MACHINE:X86 DEBUG\ANZEIGENFORM.OBJDEBUG\HAUPTFORM.OBJDEBUG\SUCHENFORM.OBJ"DEBUG\.NETFRAMEWORK,VERSION=V4.5.ASSEMBLYATTRIBUTES.OBJ"
^C:\USERS\HENDRIK\DROPBOX\INF3_PROJEKT\INF3_PROJEKT\DEBUG\.NETFRAMEWORK,VERSION=V4.5.ASSEMBLYATTRIBUTES.OBJ|C:\USERS\HENDRIK\DROPBOX\INF3_PROJEKT\INF3_PROJEKT\DEBUG\ANZEIGENFORM.OBJ|C:\USERS\HENDRIK\DROPBOX\INF3_PROJEKT\INF3_PROJEKT\DEBUG\HAUPTFORM.OBJ|C:\USERS\HENDRIK\DROPBOX\INF3_PROJEKT\INF3_PROJEKT\DEBUG\SUCHENFORM.OBJ
/OUT:"C:\USERS\HENDRIK\DROPBOX\INF3_PROJEKT\DEBUG\INF3_PROJEKT.EXE" /INCREMENTAL /NOLOGO /ASSEMBLYRESOURCE:Debug\INF3_Projekt.AnzeigenForm.resources /ASSEMBLYRESOURCE:Debug\INF3_Projekt.HauptForm.resources /ASSEMBLYRESOURCE:Debug\INF3_Projekt.SuchenForm.resources /MANIFEST /MANIFESTUAC:"level='asInvoker' uiAccess='false'" /manifest:embed /DEBUG /PDB:"C:\USERS\HENDRIK\DROPBOX\INF3_PROJEKT\DEBUG\INF3_PROJEKT.PDB" /ASSEMBLYDEBUG /SUBSYSTEM:WINDOWS /TLBID:1 /ENTRY:"main" /DYNAMICBASE /FIXED:NO /NXCOMPAT /MACHINE:X86 DEBUG\ANZEIGENFORM.OBJDEBUG\HAUPTFORM.OBJDEBUG\SUCHENFORM.OBJ"DEBUG\.NETFRAMEWORK,VERSION=V4.5.ASSEMBLYATTRIBUTES.OBJ"
^D:\MEIN STUDIUM\INF\INF3\PHILIPPZ-INF3_PROJEKT\PHILIPPZ-INF3_PROJEKT\INF3_PROJEKT\INF3_PROJEKT\DEBUG\.NETFRAMEWORK,VERSION=V4.5.ASSEMBLYATTRIBUTES.OBJ|D:\MEIN STUDIUM\INF\INF3\PHILIPPZ-INF3_PROJEKT\PHILIPPZ-INF3_PROJEKT\INF3_PROJEKT\INF3_PROJEKT\DEBUG\ANZEIGENFORM.OBJ|D:\MEIN STUDIUM\INF\INF3\PHILIPPZ-INF3_PROJEKT\PHILIPPZ-INF3_PROJEKT\INF3_PROJEKT\INF3_PROJEKT\DEBUG\HAUPTFORM.OBJ|D:\MEIN STUDIUM\INF\INF3\PHILIPPZ-INF3_PROJEKT\PHILIPPZ-INF3_PROJEKT\INF3_PROJEKT\INF3_PROJEKT\DEBUG\SUCHENFORM.OBJ
/OUT:"D:\MEIN STUDIUM\INF\INF3\PHILIPPZ-INF3_PROJEKT\PHILIPPZ-INF3_PROJEKT\INF3_PROJEKT\DEBUG\INF3_PROJEKT.EXE" /INCREMENTAL /NOLOGO /ASSEMBLYRESOURCE:Debug\INF3_Projekt.AnzeigenForm.resources /ASSEMBLYRESOURCE:Debug\INF3_Projekt.HauptForm.resources /ASSEMBLYRESOURCE:Debug\INF3_Projekt.HilfeForm.resources /ASSEMBLYRESOURCE:Debug\INF3_Projekt.HilfeHauptmForm.resources /ASSEMBLYRESOURCE:Debug\INF3_Projekt.SuchenForm.resources /MANIFEST /MANIFESTUAC:"level='asInvoker' uiAccess='false'" /manifest:embed /DEBUG /PDB:"D:\MEIN STUDIUM\INF\INF3\PHILIPPZ-INF3_PROJEKT\PHILIPPZ-INF3_PROJEKT\INF3_PROJEKT\DEBUG\INF3_PROJEKT.PDB" /ASSEMBLYDEBUG /SUBSYSTEM:WINDOWS /TLBID:1 /ENTRY:"main" /DYNAMICBASE /FIXED:NO /NXCOMPAT /MACHINE:X86 DEBUG\ANZEIGENFORM.OBJDEBUG\HAUPTFORM.OBJDEBUG\SUCHENFORM.OBJ"DEBUG\.NETFRAMEWORK,VERSION=V4.5.ASSEMBLYATTRIBUTES.OBJ"
